<?xml version="1.0" encoding="UTF-8"?>
<CustomTab xmlns="http://soap.sforce.com/2006/04/metadata">
    <customObject>true</customObject>
    <icon>Tab_Icons/Maintenance_Visit_Icon.png</icon>
    <mobileReady>false</mobileReady>
    <motif>Custom134: TV Widescreen</motif>
</CustomTab>
